module dannyvanheumen.nl/mdstory

go 1.13

require (
	github.com/russross/blackfriday v2.0.0+incompatible // indirect
	github.com/shurcooL/sanitized_anchor_name v1.0.0 // indirect
	gitlab.com/golang-commonmark/html v0.0.0-20180917080848-cfaf75183c4a // indirect
	gitlab.com/golang-commonmark/linkify v0.0.0-20180917065525-c22b7bdb1179 // indirect
	gitlab.com/golang-commonmark/markdown v0.0.0-20181102083822-772775880e1f
	gitlab.com/golang-commonmark/mdurl v0.0.0-20180912090424-e5bce34c34f2 // indirect
	gitlab.com/golang-commonmark/puny v0.0.0-20180912090636-2cd490539afe // indirect
	gitlab.com/opennota/wd v0.0.0-20180912061657-c5d65f63c638 // indirect
	golang.org/x/text v0.3.2 // indirect
)
